<svg xmlns="http://www.w3.org/2000/svg" viewBox="0 0 195 9">
  <defs>
    <style>
      .cls-1 {
        fill: none;
        stroke: #615465;
        stroke-miterlimit: 10;
        stroke-width: 2px;
      }
    </style>
  </defs>
  <path id="Path_168" data-name="Path 168" class="cls-1" d="M0,.3A9.009,9.009,0,0,1,6.961,3.809,9.013,9.013,0,0,0,13.922,7.3a9.067,9.067,0,0,0,6.961-3.491A9.086,9.086,0,0,1,27.845.3a9.01,9.01,0,0,1,6.961,3.509A9.045,9.045,0,0,0,41.767,7.3a9.045,9.045,0,0,0,6.961-3.491A9.119,9.119,0,0,1,55.718.3,9.01,9.01,0,0,1,62.68,3.809,9.013,9.013,0,0,0,69.641,7.3,9.067,9.067,0,0,0,76.6,3.809a8.66,8.66,0,0,1,13.922,0A8.992,8.992,0,0,0,97.486,7.3a9.045,9.045,0,0,0,6.961-3.491A9.119,9.119,0,0,1,111.437.3,9.009,9.009,0,0,1,118.4,3.809,9.013,9.013,0,0,0,125.359,7.3a9.067,9.067,0,0,0,6.961-3.491,8.66,8.66,0,0,1,13.922,0A8.992,8.992,0,0,0,153.2,7.3a9.045,9.045,0,0,0,6.961-3.491A9.119,9.119,0,0,1,167.155.3a9.009,9.009,0,0,1,6.961,3.509A9.013,9.013,0,0,0,181.078,7.3a9.045,9.045,0,0,0,6.961-3.491A9.086,9.086,0,0,1,195,.3" transform="translate(0 0.7)"/>
</svg>
