<svg xmlns="http://www.w3.org/2000/svg" viewBox="0 0 196.414 13.629">
  <defs>
    <style>
      .cls-1 {
        fill: none;
        stroke: #939a68;
        stroke-miterlimit: 10;
        stroke-width: 2px;
      }
    </style>
  </defs>
  <g id="Group_353" data-name="Group 353" transform="translate(0.507 1.015)">
    <path id="Path_236" data-name="Path 236" class="cls-1" d="M.2.4,11,11.2,21.9.4,32.7,11.2,43.5.4,54.4,11.2,65.2.4,76,11.2,86.9.4,97.7,11.2,108.5.4l10.9,10.8L130.2.4,141,11.2,151.9.4l10.8,10.8L173.5.4l10.9,10.8L195.2.4"/>
  </g>
</svg>
