<svg xmlns="http://www.w3.org/2000/svg" viewBox="0 0 23.973 35.818" width="33" height="33">
  <defs>
    <style>
      #pinbordo {
        width: 33px;
      }

      .pinbordo {
        fill: #F44336;
        width: 33px;
      }
    </style>
  </defs>
  <path id="pinbordo" class="pinbordo" d="M12.342,35.818h-.019a1.122,1.122,0,0,1-.871-.441,82.78,82.78,0,0,1-5.9-8.148C1.867,21.411,0,16.661,0,13.108,0,6.594,4,0,11.631,0a11.571,11.571,0,0,1,9.158,4.2,14.059,14.059,0,0,1,3.184,8.886c0,4.259-1.823,9.312-5.419,15.02A62.021,62.021,0,0,1,13.213,35.4,1.2,1.2,0,0,1,12.342,35.818ZM12.163,8.857a5.479,5.479,0,0,0-5.3,5.63,5.479,5.479,0,0,0,5.3,5.63,5.479,5.479,0,0,0,5.3-5.63A5.479,5.479,0,0,0,12.163,8.857Z"/>
</svg>
